…
    Warning: Expected 2 pieces. Additional pieces discarded in 3174 rows [28943, 28944,
    28945, 28946, 28947, 28948, 28949, 28950, 28951, 28952, 28953, 28954, 28955,
    28956, 28957, 28958, 28959, 28960, 28961, 28962, ...].

We can use the resulting object to search for variables with `"smok"` or
`"cigar"` in their labels.

``` r
df_lookfor %>%
  filter(str_detect(label_low, "smok|cigar")) %>%
  select(file, variable, label)
```

    # A tibble: 294 × 3
       file         variable label                                   
       <chr>        <chr>    <chr>                                   
     1 bcs7072a.dta a0043b   SMOKING DURING PREGNANCY                
     2 bcs7072b.dta b0024    DOES THE CHILD'S MOTHER SMOKE TOBACCO ? 
     3 bcs7072b.dta b0025    IF NO WHEN DID SHE LAST SMOKE (MONTH) ? 
     4 bcs7072b.dta b0026    IF NO WHEN DID SHE LAST SMOKE (YEAR) ?  
     5 bcs7072b.dta b0027    ANSWER TO LAST SMOKED OTHER THAN A DATE 
     6 bcs7072b.dta b0028    HOW MANY SMOKED ( CIGARETTES ) ?        
     7 sn3723.dta   e9_1     MOTHER'S PRESENT SMOKING HABITS         
     8 sn3723.dta   e9_2     NO. OF CIGARETTES MOTHER SMOKES DAILY   
     9 sn3723.dta   e9_3     LENGTH OF TIME MOTHER HAS SMOKED        
    10 sn3723.dta   e10_1    MOTHER NON SMOKER NOW HAS SMOKED IN PAST
    # ℹ 284 more rows
