…
The `*_join()` functions can handle multiple variables to join on, and
can also handle situations where the identifiers have different names
across `x` and `y`. To specify the identifiers, we pass a vector to the
`by` argument. In this case, we pass a *named vector* so that `BCSID` in
`df_42y` can be matched to `bcsid` in `df_51y`.

``` r
df_42y %>%
  full_join(df_51y, by = c(BCSID = "bcsid"))
```

    # A tibble: 10,683 × 3
       BCSID   BD9HGHTM  bd11hghtm
       <chr>   <dbl+lbl> <dbl+lbl>
     1 B10001N 1.55       1.55    
     2 B10003Q 1.85       1.85    
     3 B10004R 1.60       1.6     
     4 B10007U 1.52      NA       
     5 B10009W 1.63       1.63    
     6 B10010P 1.65      NA       
     7 B10011Q 1.63       1.65    
     8 B10013S 1.63       1.63    
     9 B10015U 1.83       1.8     
    10 B10016V 1.88       1.88    
    # ℹ 10,673 more rows

``` r
df_42y %>%
  inner_join(df_51y, by = c(BCSID = "bcsid"))
```

    # A tibble: 7,174 × 3
       BCSID   BD9HGHTM  bd11hghtm
       <chr>   <dbl+lbl> <dbl+lbl>
     1 B10001N 1.55      1.55     
     2 B10003Q 1.85      1.85     
     3 B10004R 1.60      1.6      
     4 B10009W 1.63      1.63     
     5 B10011Q 1.63      1.65     
     6 B10013S 1.63      1.63     
     7 B10015U 1.83      1.8      
     8 B10016V 1.88      1.88     
     9 B10018X 1.73      1.7      
    10 B10020R 1.50      1.47     
    # ℹ 7,164 more rows

``` r
df_42y %>%
  left_join(df_51y, by = c(BCSID = "bcsid"))
```

    # A tibble: 9,841 × 3
       BCSID   BD9HGHTM  bd11hghtm
       <chr>   <dbl+lbl> <dbl+lbl>
     1 B10001N 1.55       1.55    
     2 B10003Q 1.85       1.85    
     3 B10004R 1.60       1.6     
     4 B10007U 1.52      NA       
     5 B10009W 1.63       1.63    
     6 B10010P 1.65      NA       
     7 B10011Q 1.63       1.65    
     8 B10013S 1.63       1.63    
     9 B10015U 1.83       1.8     
    10 B10016V 1.88       1.88    
    # ℹ 9,831 more rows

``` r
df_42y %>%
  right_join(df_51y, by = c(BCSID = "bcsid"))
```

    # A tibble: 8,016 × 3
       BCSID   BD9HGHTM  bd11hghtm
       <chr>   <dbl+lbl> <dbl+lbl>
     1 B10001N 1.55      1.55     
     2 B10003Q 1.85      1.85     
     3 B10004R 1.60      1.6      
     4 B10009W 1.63      1.63     
     5 B10011Q 1.63      1.65     
     6 B10013S 1.63      1.63     
     7 B10015U 1.83      1.8      
     8 B10016V 1.88      1.88     
     9 B10018X 1.73      1.7      
    10 B10020R 1.50      1.47     
    # ℹ 8,006 more rows
…
``` r
df_42y %>%
  rename_with(str_to_lower) %>% # Converts all variable names to upper case
  full_join(df_51y)
```

    Joining with `by = join_by(bcsid)`

    # A tibble: 10,683 × 3
       bcsid   bd9hghtm  bd11hghtm
       <chr>   <dbl+lbl> <dbl+lbl>
     1 B10001N 1.55       1.55    
     2 B10003Q 1.85       1.85    
     3 B10004R 1.60       1.6     
     4 B10007U 1.52      NA       
     5 B10009W 1.63       1.63    
     6 B10010P 1.65      NA       
     7 B10011Q 1.63       1.65    
     8 B10013S 1.63       1.63    
     9 B10015U 1.83       1.8     
    10 B10016V 1.88       1.88    
    # ℹ 10,673 more rows
…
``` r
df_42y_nosuffix
```

    # A tibble: 9,841 × 3
       sweep bcsid   hghtm    
       <dbl> <chr>   <dbl+lbl>
     1     9 B10001N 1.55     
     2     9 B10003Q 1.85     
     3     9 B10004R 1.60     
     4     9 B10007U 1.52     
     5     9 B10009W 1.63     
     6     9 B10010P 1.65     
     7     9 B10011Q 1.63     
     8     9 B10013S 1.63     
     9     9 B10015U 1.83     
    10     9 B10016V 1.88     
    # ℹ 9,831 more rows

``` r
df_51y_nosuffix
```

    # A tibble: 8,016 × 3
       sweep bcsid   hghtm    
       <dbl> <chr>   <dbl+lbl>
     1    11 B10001N 1.55     
     2    11 B10003Q 1.85     
     3    11 B10004R 1.6      
     4    11 B10009W 1.63     
     5    11 B10011Q 1.65     
     6    11 B10013S 1.63     
     7    11 B10015U 1.8      
     8    11 B10016V 1.88     
     9    11 B10018X 1.7      
    10    11 B10020R 1.47     
    # ℹ 8,006 more rows

Now the data have been prepared, we can use `bind_rows()` to append the
data frames together. This will stack the data frames on top of each
other, so the number of rows is equal to the sum of rows in the
individual datasets. The `bind_rows()` function can handle data frames
with different numbers of columns. Missing columns are filled with `NA`
values.

``` r
bind_rows(df_42y_nosuffix, df_51y_nosuffix) %>%
  arrange(bcsid, sweep) # Sorts the dataset by ID and sweep
```

    # A tibble: 17,857 × 3
       sweep bcsid   hghtm    
       <dbl> <chr>   <dbl+lbl>
     1     9 B10001N 1.55     
     2    11 B10001N 1.55     
     3     9 B10003Q 1.85     
     4    11 B10003Q 1.85     
     5     9 B10004R 1.60     
     6    11 B10004R 1.6      
     7     9 B10007U 1.52     
     8     9 B10009W 1.63     
     9    11 B10009W 1.63     
    10     9 B10010P 1.65     
    # ℹ 17,847 more rows
…
``` r
bind_rows(df_42y_nosuffix, df_51y_nosuffix) %>%
  complete(bcsid, sweep) %>% # Ensure cohort members have a row for each sweep
  arrange(bcsid, sweep) 
```

    # A tibble: 21,366 × 3
       bcsid   sweep hghtm    
       <chr>   <dbl> <dbl+lbl>
     1 B10001N     9  1.55    
     2 B10001N    11  1.55    
     3 B10003Q     9  1.85    
     4 B10003Q    11  1.85    
     5 B10004R     9  1.60    
     6 B10004R    11  1.6     
     7 B10007U     9  1.52    
     8 B10007U    11 NA       
     9 B10009W     9  1.63    
    10 B10009W    11  1.63    
    # ℹ 21,356 more rows
