…
``` r
df_long <- df_wide %>%
  pivot_longer(cols = matches("^bd"),
               names_to = c("sweep", ".value"),
               names_pattern = "^bd(\\d{1,2})([A-Za-z].+)$")

df_long
```

    # A tibble: 21,366 × 4
       bcsid   sweep hghtm     wghtk    
       <chr>   <chr> <dbl+lbl> <dbl+lbl>
     1 B10001N 9      1.55     55.8     
     2 B10001N 11     1.55     50.8     
     3 B10003Q 9      1.85     82.6     
     4 B10003Q 11     1.85     83.5     
     5 B10004R 9      1.60     57.2     
     6 B10004R 11     1.6      57.2     
     7 B10007U 9      1.52     82.6     
     8 B10007U 11    NA        NA       
     9 B10009W 9      1.63     54.9     
    10 B10009W 11     1.63     60.3     
    # ℹ 21,356 more rows
…
``` r
df_long %>%
  pivot_wider(names_from = sweep,
              values_from = c(hghtm, wghtk),
              names_glue = "{.value}_{sweep}")
```

    # A tibble: 10,683 × 5
       bcsid   hghtm_9   hghtm_11  wghtk_9              wghtk_11 
       <chr>   <dbl+lbl> <dbl+lbl> <dbl+lbl>            <dbl+lbl>
     1 B10001N 1.55       1.55      55.8                 50.8    
     2 B10003Q 1.85       1.85      82.6                 83.5    
     3 B10004R 1.60       1.6       57.2                 57.2    
     4 B10007U 1.52      NA         82.6                 NA      
     5 B10009W 1.63       1.63      54.9                 60.3    
     6 B10010P 1.65      NA         -8 [No information]  NA      
     7 B10011Q 1.63       1.65      76.2                 82.6    
     8 B10013S 1.63       1.63      63.5                 66.7    
     9 B10015U 1.83       1.8       77.6                 82.6    
    10 B10016V 1.88       1.88     114.                 118      
    # ℹ 10,673 more rows
…
