…
```r
df_0y_hhgrid_prel %>%
  pivot_longer(cols = matches("AHPREL[A-Z]0"),
               names_to = "alt",
               values_to = "relationship") %>%
  mutate(APNUM00_alt = match(str_sub(alt, 7, 7), LETTERS)) %>%
  filter(relationship == 1) %>%
  select(MCSID, APNUM00, partner_pnum = APNUM00_alt)
```

``` text
# A tibble: 23,616 × 3
   MCSID   APNUM00 partner_pnum
   <chr>     <dbl>        <int>
 1 M10001N       1            2
 2 M10001N       2            1
 3 M10002P       1            2
 4 M10002P       2            1
 5 M10007U       1            2
 6 M10007U       2            1
 7 M10011Q       1            2
 8 M10011Q       2            1
 9 M10015U       1            2
10 M10015U       2            1
# ℹ 23,606 more rows
```
…
