…
We can use the resulting object to search for variables with `"sdq"` in
their labels.

``` r
df_lookfor %>%
  filter(str_detect(label_low, "sdq")) %>%
  select(file, variable, label)
```

    # A tibble: 73 × 3
       file                       variable label                                    
       <chr>                      <chr>    <chr>                                    
     1 mcs5_cm_teacher_survey.dta EEMOTI_T S5 DV TEACHER SDQ Emotional Symptoms     
     2 mcs5_cm_teacher_survey.dta ECOND_T  S5 DV TEACHER SDQ Conduct Problems       
     3 mcs5_cm_teacher_survey.dta EHYPER_T S5 DV TEACHER SDQ Hyperactivity/Inattent…
     4 mcs5_cm_teacher_survey.dta EPEER_T  S5 DV TEACHER SDQ Peer Problems          
     5 mcs5_cm_teacher_survey.dta EPROSO_T S5 DV TEACHER SDQ Prosocial              
     6 mcs5_cm_teacher_survey.dta EEBDTO_T S5 DV TEACHER SDQ Total Difficulties     
     7 mcs5_cm_teacher_survey.dta EEBDIF_T S5 DV TEACHER SDQ CM has Difficulties in…
     8 mcs6_cm_derived.dta        FEMOTION S6 DV Parent-reported CM SDQ Emotional S…
     9 mcs6_cm_derived.dta        FCONDUCT S6 DV Parent-reported CM SDQ Conduct Pro…
    10 mcs6_cm_derived.dta        FHYPER   S6 DV Parent-reported CM SDQ Hyperactivi…
    # ℹ 63 more rows
