…
``` text
Warning: `CCWTCM00` and `GCWTCM00` have conflicting value labels.
ℹ Labels for these values will be taken from `CCWTCM00`.
✖ Values: -5
```

```r
df_long
```

``` text
# A tibble: 105,684 × 6
   MCSID   cnum                                ECWTCMA00 sweep CHTCM00   CWTCM00
   <chr>   <dbl+lbl>                           <dbl+lbl> <chr> <dbl+lbl> <dbl+l>
 1 M10001N 1 [1st Cohort Member of the family] NA        B      97       NA     
 2 M10001N 1 [1st Cohort Member of the family] NA        C     114.      21.2   
 3 M10001N 1 [1st Cohort Member of the family] NA        D     128.      25.5   
 4 M10001N 1 [1st Cohort Member of the family] NA        E      NA       NA     
 5 M10001N 1 [1st Cohort Member of the family] NA        F      NA       NA     
 6 M10001N 1 [1st Cohort Member of the family] NA        G      NA       NA     
 7 M10002P 1 [1st Cohort Member of the family] 41.8      B      96       NA     
 8 M10002P 1 [1st Cohort Member of the family] 41.8      C     110.      19.2   
 9 M10002P 1 [1st Cohort Member of the family] 41.8      D     123       26.2   
10 M10002P 1 [1st Cohort Member of the family] 41.8      E     144.      NA     
# ℹ 105,674 more rows
```
…
```r
df_long %>%
  pivot_wider(names_from = sweep,
              values_from = matches("C(W|H)T"),
              names_glue = "{sweep}{.value}")
```

``` text
# A tibble: 17,614 × 20
   MCSID   cnum           BECWTCMA00 CECWTCMA00 DECWTCMA00 EECWTCMA00 FECWTCMA00
   <chr>   <dbl+lbl>      <dbl+lbl>  <dbl+lbl>  <dbl+lbl>  <dbl+lbl>  <dbl+lbl> 
 1 M10001N 1 [1st Cohort… NA         NA         NA         NA         NA        
 2 M10002P 1 [1st Cohort… 41.8       41.8       41.8       41.8       41.8      
 3 M10007U 1 [1st Cohort… 40.6       40.6       40.6       40.6       40.6      
 4 M10008V 1 [1st Cohort… NA         NA         NA         NA         NA        
 5 M10008V 2 [2nd Cohort… NA         NA         NA         NA         NA        
 6 M10011Q 1 [1st Cohort… 74         74         74         74         74        
 7 M10014T 1 [1st Cohort… NA         NA         NA         NA         NA        
 8 M10015U 1 [1st Cohort… 38.2       38.2       38.2       38.2       38.2      
 9 M10016V 1 [1st Cohort… 41.5       41.5       41.5       41.5       41.5      
10 M10017W 1 [1st Cohort… NA         NA         NA         NA         NA        
# ℹ 17,604 more rows
# ℹ 13 more variables: GECWTCMA00 <dbl+lbl>, BCHTCM00 <dbl+lbl>,
#   CCHTCM00 <dbl+lbl>, DCHTCM00 <dbl+lbl>, ECHTCM00 <dbl+lbl>,
#   FCHTCM00 <dbl+lbl>, GCHTCM00 <dbl+lbl>, BCWTCM00 <dbl+lbl>,
#   CCWTCM00 <dbl+lbl>, DCWTCM00 <dbl+lbl>, ECWTCM00 <dbl+lbl>,
#   FCWTCM00 <dbl+lbl>, GCWTCM00 <dbl+lbl>
```
…
```r
df_wide_clean <- df_long_clean %>%
  pivot_wider(names_from = fup,
              values_from = c(height, weight),
              names_glue = "{.value}_{fup}y")

df_wide_clean
```

``` text
# A tibble: 17,614 × 14
   MCSID    cnum height_3y height_5y height_7y height_11y height_14y height_17y
   <chr>   <int>     <dbl>     <dbl>     <dbl>      <dbl>      <dbl>      <dbl>
 1 M10001N     1        97      114.      128.        NA         NA         NA 
 2 M10002P     1        96      110.      123        144.       163.       174.
 3 M10007U     1       102      118       129        154.       174.       181.
 4 M10008V     1        NA       NA        NA         NA         NA         NA 
 5 M10008V     2        NA       NA        NA         NA         NA         NA 
 6 M10011Q     1       106      121       137        168.        NA         NA 
 7 M10014T     1        97       NA        NA         NA         NA         NA 
 8 M10015U     1        94      110.      122.       143        164.       169 
 9 M10016V     1       102      118.      130        152.       167        185.
10 M10017W     1        99      110.      121.        NA         NA         NA 
# ℹ 17,604 more rows
# ℹ 6 more variables: weight_3y <dbl>, weight_5y <dbl>, weight_7y <dbl>,
#   weight_11y <dbl>, weight_14y <dbl>, weight_17y <dbl>
```
…
```r
df_wide_clean %>%
  pivot_longer(cols = matches("_.*y$"),
               names_to = c(".value", "fup"),
               names_pattern = "(.*)_(\\d+)y$",
               names_transform = list(fup = as.integer))
```

``` text
# A tibble: 105,684 × 5
   MCSID    cnum   fup height weight
   <chr>   <int> <int>  <dbl>  <dbl>
 1 M10001N     1     3    97    NA  
 2 M10001N     1     5   114.   21.2
 3 M10001N     1     7   128.   25.5
 4 M10001N     1    11    NA    NA  
 5 M10001N     1    14    NA    NA  
 6 M10001N     1    17    NA    NA  
 7 M10002P     1     3    96    NA  
 8 M10002P     1     5   110.   19.2
 9 M10002P     1     7   123    26.2
10 M10002P     1    11   144.   NA  
# ℹ 105,674 more rows
```
