…
``` r
df_long <- df_wide %>%
  pivot_longer(cols = matches("DV(HT|WT)\\d\\d"),
               names_to = c(".value", "fup"),
               names_pattern = "^(.*)(\\d\\d)$")

df_long
```

    # A tibble: 28,028 × 4
       NCDSID  fup   DVHT      DVWT     
       <chr>   <chr> <dbl+lbl> <dbl+lbl>
     1 N10001N 23     1.63     59.4     
     2 N10001N 50    NA        66.7     
     3 N10002P 23     1.90     73.5     
     4 N10002P 50    NA        79.4     
     5 N10004R 23     1.65     76.2     
     6 N10004R 50    NA        NA       
     7 N10007U 23     1.63     52.2     
     8 N10007U 50    NA        72.1     
     9 N10009W 23     1.73     66.7     
    10 N10009W 50     1.7      78       
    # ℹ 28,018 more rows
…
``` r
df_long %>%
  pivot_wider(names_from = fup,
              values_from = matches("DV(HT|WT)"),
              names_glue = "{.value}{fup}")
```

    # A tibble: 14,014 × 5
       NCDSID  DVHT23    DVHT50    DVWT23    DVWT50   
       <chr>   <dbl+lbl> <dbl+lbl> <dbl+lbl> <dbl+lbl>
     1 N10001N 1.63      NA         59.4      66.7    
     2 N10002P 1.90      NA         73.5      79.4    
     3 N10004R 1.65      NA         76.2      NA      
     4 N10007U 1.63      NA         52.2      72.1    
     5 N10009W 1.73       1.7       66.7      78      
     6 N10011Q 1.68       1.7       63.5      95      
     7 N10012R 1.96      NA        114.      133.     
     8 N10013S 1.78      NA         83.5      95.2    
     9 N10014T 1.55      NA         57.2      63.5    
    10 N10015U 1.80      NA         73.0      78      
    # ℹ 14,004 more rows
…
