…
The `*_join()` functions can handle multiple variables to join on, and
can also handle situations where the identifiers have different names
across `x` and `y`. To specify the identifiers, we pass a vector to the
`by` argument. In this case, we pass a *named vector* so that `ncdsid`
in `df_23y` can be matched to `NCDSID` in `df_50y`.

``` r
df_23y %>%
full_join(df_50y, by = c(ncdsid = "NCDSID"))
```

    # A tibble: 14,014 × 3
       ncdsid  dvwt23    DVWT50
       <chr>   <dbl+lbl>  <dbl>
     1 N10001N  59.4       66.7
     2 N10002P  73.5       79.4
     3 N10004R  76.2       NA  
     4 N10007U  52.2       72.1
     5 N10009W  66.7       78  
     6 N10011Q  63.5       95  
     7 N10012R 114.       133. 
     8 N10013S  83.5       95.2
     9 N10014T  57.2       63.5
    10 N10015U  73.0       78  
    # ℹ 14,004 more rows

``` r
df_23y %>%
inner_join(df_50y, by = c(ncdsid = "NCDSID"))
```

    # A tibble: 8,313 × 3
       ncdsid  dvwt23    DVWT50
       <chr>   <dbl+lbl>  <dbl>
     1 N10001N  59.4       66.7
     2 N10002P  73.5       79.4
     3 N10007U  52.2       72.1
     4 N10009W  66.7       78  
     5 N10011Q  63.5       95  
     6 N10012R 114.       133. 
     7 N10013S  83.5       95.2
     8 N10014T  57.2       63.5
     9 N10015U  73.0       78  
    10 N10016V  63.5       70.8
    # ℹ 8,303 more rows

``` r
df_23y %>%
left_join(df_50y, by = c(ncdsid = "NCDSID"))
```

    # A tibble: 12,537 × 3
       ncdsid  dvwt23    DVWT50
       <chr>   <dbl+lbl>  <dbl>
     1 N10001N  59.4       66.7
     2 N10002P  73.5       79.4
     3 N10004R  76.2       NA  
     4 N10007U  52.2       72.1
     5 N10009W  66.7       78  
     6 N10011Q  63.5       95  
     7 N10012R 114.       133. 
     8 N10013S  83.5       95.2
     9 N10014T  57.2       63.5
    10 N10015U  73.0       78  
    # ℹ 12,527 more rows

``` r
df_23y %>%
right_join(df_50y, by = c(ncdsid = "NCDSID"))
```

    # A tibble: 9,790 × 3
       ncdsid  dvwt23    DVWT50
       <chr>   <dbl+lbl>  <dbl>
     1 N10001N  59.4       66.7
     2 N10002P  73.5       79.4
     3 N10007U  52.2       72.1
     4 N10009W  66.7       78  
     5 N10011Q  63.5       95  
     6 N10012R 114.       133. 
     7 N10013S  83.5       95.2
     8 N10014T  57.2       63.5
     9 N10015U  73.0       78  
    10 N10016V  63.5       70.8
    # ℹ 9,780 more rows
…
``` r
df_23y %>%
rename_with(str_to_upper) %>% # Converts all variable names to upper case
full_join(df_50y)
```

    Joining with `by = join_by(NCDSID)`

    # A tibble: 14,014 × 3
       NCDSID  DVWT23    DVWT50
       <chr>   <dbl+lbl>  <dbl>
     1 N10001N  59.4       66.7
     2 N10002P  73.5       79.4
     3 N10004R  76.2       NA  
     4 N10007U  52.2       72.1
     5 N10009W  66.7       78  
     6 N10011Q  63.5       95  
     7 N10012R 114.       133. 
     8 N10013S  83.5       95.2
     9 N10014T  57.2       63.5
    10 N10015U  73.0       78  
    # ℹ 14,004 more rows
…
``` r
df_23y_nosuffix
```

    # A tibble: 12,537 × 3
       sweep NCDSID  DVWT     
       <dbl> <chr>   <dbl+lbl>
     1    23 N10001N  59.4    
     2    23 N10002P  73.5    
     3    23 N10004R  76.2    
     4    23 N10007U  52.2    
     5    23 N10009W  66.7    
     6    23 N10011Q  63.5    
     7    23 N10012R 114.     
     8    23 N10013S  83.5    
     9    23 N10014T  57.2    
    10    23 N10015U  73.0    
    # ℹ 12,527 more rows

``` r
df_50y_nosuffix
```

    # A tibble: 9,790 × 3
       sweep NCDSID   DVWT
       <dbl> <chr>   <dbl>
     1    50 N10001N  66.7
     2    50 N10002P  79.4
     3    50 N10007U  72.1
     4    50 N10008V  69.8
     5    50 N10009W  78  
     6    50 N10011Q  95  
     7    50 N10012R 133. 
     8    50 N10013S  95.2
     9    50 N10014T  63.5
    10    50 N10015U  78  
    # ℹ 9,780 more rows

Now the data have been prepared, we can use `bind_rows()` to append the
data frames together. This will stack the data frames on top of each
other, so the number of rows is equal to the sum of rows in the
individual datasets. The `bind_rows()` function can handle data frames
with different numbers of columns. Missing columns are filled with `NA`
values.

``` r
bind_rows(df_23y_nosuffix, df_50y_nosuffix) %>%
arrange(NCDSID, sweep) # Sorts the dataset by ID and sweep
```

    # A tibble: 22,327 × 3
       sweep NCDSID  DVWT     
       <dbl> <chr>   <dbl+lbl>
     1    23 N10001N 59.4     
     2    50 N10001N 66.7     
     3    23 N10002P 73.5     
     4    50 N10002P 79.4     
     5    23 N10004R 76.2     
     6    23 N10007U 52.2     
     7    50 N10007U 72.1     
     8    50 N10008V 69.8     
     9    23 N10009W 66.7     
    10    50 N10009W 78       
    # ℹ 22,317 more rows
…
``` r
bind_rows(df_23y_nosuffix, df_50y_nosuffix) %>%
complete(NCDSID, sweep) %>% # Ensure cohort members have a row for each sweep
arrange(NCDSID, sweep) 
```

    # A tibble: 28,028 × 3
       NCDSID  sweep DVWT     
       <chr>   <dbl> <dbl+lbl>
     1 N10001N    23 59.4     
     2 N10001N    50 66.7     
     3 N10002P    23 73.5     
     4 N10002P    50 79.4     
     5 N10004R    23 76.2     
     6 N10004R    50 NA       
     7 N10007U    23 52.2     
     8 N10007U    50 72.1     
     9 N10008V    23 NA       
    10 N10008V    50 69.8     
    # ℹ 28,018 more rows
