…
We can use the resulting object to search for variables with `"height"`
in their labels.

``` r
df_lookfor %>%
  filter(str_detect(label_low, "height")) %>%
  select(file, variable, label)
```

    # A tibble: 79 × 3
       file         variable label                                   
       <chr>        <chr>    <chr>                                   
     1 ncds0123.dta n510     0 Height of mum in inches at chlds brth 
     2 ncds0123.dta n332     1M Childs height, no shoes-nearest inch 
     3 ncds0123.dta n334     1M Childs height,no shoes-to centimeter 
     4 ncds0123.dta n1199    2P Father's height in inches            
     5 ncds0123.dta n1205    2P Mothers height in inches             
     6 ncds0123.dta n1510    2M Childs height no shoes,socks- inches 
     7 ncds0123.dta n1511    2M Fractions of an inch in childs height
     8 ncds0123.dta n1949    3M Child's height,in bare feet,in cms   
     9 ncds0123.dta dvht07   1D Height in metres at 7 years          
    10 ncds0123.dta dvht11   2D Height in metres at 11 years         
    # ℹ 69 more rows
